{
    "AlbumList": [
        {
        "id": 1,
        "title": "О лютой ненависти и святой любви",
        "data": {
            "author": "Соль Земли",
            "genre": "Rap, Hip-Hop",
            "year": "2017",
            "songs": 
            [
                "01. С менталитетом меченосца",
                "02. День, когда вскипят океаны",
                "03. Боевое применение",
                "04. Интерлюдия 1 (Уильям Блейк)",
                "05. Ночь нежна",
                "06. Хит-парад Багдада (2017)",
                "07. Прометей",
                "08. На арамейском",
                "09. Так горит степь",
                "10. На твоей земле",
                "11. Интерлюдия 2 (Николай Гумилёв)",
                "12. Патологии",
                "13. На запад Солнца",
                "14. Дикий мёд",
                "15. За копьё"
            ]
        },
        "path": "../assets/SZ.jpg"}, 
        {
        "id": 2,
        "title": "Blurryface",
        "data": {
            "author": "Twenty One Pilots",
            "genre": "Hip-Hop, Indie Pop, Reggae",
            "year": "2015",
            "songs": 
            [
                "01. Heavydirtysoul",
                "02. Stressed Out",
                "03. Ride",
                "04. Fairly Local",
                "05. Tear In My Heart",
                "06. Lane Boy",
                "07. The Judge",
                "08. Doubt",
                "09. Polarize",
                "10. We Don't Believe What's On TV",
                "11. Message Man",
                "12. Hometown",
                "13. Not Today",
                "14. Goner"
            ]
        },
        "path": "../assets/TOP.png"
        },
        {
        "id": 3,
        "title": "ГОРГОРОД",
        "data": {
            "author": "Oxxxymiron",
            "genre": "Hip-Hop",
            "year": "2015",
            "songs": 
            [
                "01. Не с начала",
                "02. Кем ты стал",
                "03. Всего лишь писатель",
                "04. Девочка Пиздец",
                "05. Переплетено",
                "06. Колыбельная",
                "07. Полигон,",
                "08. Накануне",
                "09. Слово мэра",
                "10. Башня из слоновой кости",
                "11. Где нас нет"
            ]
        },
        "path": "../assets/oxxxy.jpg"
        },
        {
        "id": 4,
        "title": "Kicker",
        "data": {
            "author": "Zella Day",
            "genre": "Pop",
            "year": "2015",
            "songs": 
            [
                "01. Jerome",
                "02. High pic",
                "03. Ace of Hearts",
                "04. 1965",
                "05. East of Eden",
                "06. Hypnotic",
                "07. Mustang Kids (feat. Baby E)",
                "08. The Outlaw Josey Wales",
                "09. Jameson",
                "10. Shadow Preachers",
                "11. Sweet Ophelia",
                "12. Compass"
            ]
        },
        "path": "../assets/ZD.png"
        },
        {
        "id": 5,
        "title": "Oh Wonder",
        "data": {
            "author": "Oh Wonder",
            "genre": "Indie",
            "year": "2015",
            "songs": 
            [
                "01. Livewire",
                "02. Body Gold", 
                "03. Technicolour Beat",
                "04. Drive",
                "05. Lose It",
                "06. Landslide",
                "07. White Blood",
                "08. Without You",
                "09. The Rain",
                "10. Dazzle",
                "11. All We Do",
                "12. Midnight Moon",
                "13. Shark",
                "14. Heart Hope",
                "15. Plans"
            ]
        },
        "path": "../assets/OW.png"
        }
    ]
}

